INDEX VERSION 1.130+C:\1.TS\FSD\fsd60_sql\AdvancedJava\KartWebAppWorkSpace\.metadata\.plugins\org.eclipse.jdt.core
4195291743.index
1063644592.index
3348520720.index
1497087609.index
542153213.index
494998132.index
2507423472.index
2576675447.index
1956904976.index
2405995287.index
1065105048.index
2205283528.index
1961815414.index
2885606711.index
2066830214.index
2691050859.index
489153965.index
3112825303.index
895354549.index
1423805151.index
1259363164.index
2090605526.index
4138326577.index
1576043145.index
462583413.index
411227453.index
3285576571.index
3820539147.index
960266624.index
2141831531.index
3040837599.index
1515836348.index
1497023139.index
2933420554.index
674573568.index
4259073463.index
1946725198.index
3644761064.index
102051503.index
1434130736.index
4135958314.index
103378668.index
1665830790.index
1123842032.index
2224725228.index
2896095522.index
3528452008.index
1879624663.index
838200040.index
1485944983.index
3857701012.index
